<?xml version="1.0" encoding="UTF-8" standalone="no"?>
<svg
   xmlns:dc="http://purl.org/dc/elements/1.1/"
   xmlns:cc="http://creativecommons.org/ns#"
   xmlns:rdf="http://www.w3.org/1999/02/22-rdf-syntax-ns#"
   xmlns:svg="http://www.w3.org/2000/svg"
   xmlns="http://www.w3.org/2000/svg"
   id="svg8"
   version="1.1"
   viewBox="0 0 4.2333333 4.2333333"
   height="16"
   width="16">
  <defs
     id="defs2" />
  <metadata
     id="metadata5">
    <rdf:RDF>
      <cc:Work
         rdf:about="">
        <dc:format>image/svg+xml</dc:format>
        <dc:type
           rdf:resource="http://purl.org/dc/dcmitype/StillImage" />
        <dc:title></dc:title>
        <cc:license
           rdf:resource="http://creativecommons.org/licenses/by-nc-sa/4.0/" />
      </cc:Work>
      <cc:License
         rdf:about="http://creativecommons.org/licenses/by-nc-sa/4.0/">
        <cc:permits
           rdf:resource="http://creativecommons.org/ns#Reproduction" />
        <cc:permits
           rdf:resource="http://creativecommons.org/ns#Distribution" />
        <cc:requires
           rdf:resource="http://creativecommons.org/ns#Notice" />
        <cc:requires
           rdf:resource="http://creativecommons.org/ns#Attribution" />
        <cc:prohibits
           rdf:resource="http://creativecommons.org/ns#CommercialUse" />
        <cc:permits
           rdf:resource="http://creativecommons.org/ns#DerivativeWorks" />
        <cc:requires
           rdf:resource="http://creativecommons.org/ns#ShareAlike" />
      </cc:License>
    </rdf:RDF>
  </metadata>
  <g
     transform="translate(0,-292.76666)"
     id="layer1">
    <rect
       y="218.09758"
       x="-14.552085"
       height="8.6934528"
       width="8.6934528"
       id="rect846"
       style="opacity:1;fill:#c85329;fill-opacity:1;stroke:none;stroke-width:0.69152462;stroke-miterlimit:4;stroke-dasharray:none;stroke-opacity:1" />
    <rect
       rx="0.18240452"
       ry="0.16850559"
       y="292.76666"
       x="0"
       height="4.2333331"
       width="4.2333331"
       id="rect945"
       style="opacity:1;fill:#c85329;fill-opacity:1;stroke:none;stroke-width:0.19614869;stroke-miterlimit:4;stroke-dasharray:none;stroke-opacity:1" />
    <rect
       style="opacity:1;fill:#eeeeee;fill-opacity:1;stroke:none;stroke-width:1.32291663;stroke-miterlimit:4;stroke-dasharray:none;stroke-opacity:1"
       id="rect954"
       width="9.0871639"
       height="9.0871639"
       x="-14.552085"
       y="231.70473" />
    <path
       id="rect972"
       d="M 2.17174,294.63709 1.8507231,296.9991 H 2.4506214 L 2.760787,294.71694 Z"
       style="opacity:1;fill:#cccccc;fill-opacity:1;stroke:none;stroke-width:0.16541682;stroke-miterlimit:4;stroke-dasharray:none;stroke-opacity:1" />
    <circle
       r="0.92089981"
       transform="rotate(-74.19742)"
       style="opacity:1;fill:#eeeeee;fill-opacity:1;stroke:none;stroke-width:0.18992586;stroke-miterlimit:4;stroke-dasharray:none;stroke-opacity:1"
       id="circle974"
       cx="-282.13837"
       cy="82.468796" />
    <rect
       y="245.16223"
       x="-14.552085"
       height="9.0871639"
       width="9.0871639"
       id="rect825"
       style="opacity:1;fill:#cccccc;fill-opacity:1;stroke:none;stroke-width:1.32291663;stroke-miterlimit:4;stroke-dasharray:none;stroke-opacity:1" />
  </g>
</svg>
